index
…
gapminder %>%
  filter(country %in% c("Egypt", "Vietnam"))

## # A tibble: 24 x 6
##    country  year      pop continent lifeExp gdpPercap
##      <chr> <int>    <dbl>     <chr>   <dbl>     <dbl>
##  1   Egypt  1952 22223309    Africa  41.893  1418.822
##  2   Egypt  1957 25009741    Africa  44.444  1458.915
##  3   Egypt  1962 28173309    Africa  46.992  1693.336
##  4   Egypt  1967 31681188    Africa  49.293  1814.881
##  5   Egypt  1972 34807417    Africa  51.137  2024.008
##  6   Egypt  1977 38783863    Africa  53.319  2785.494
##  7   Egypt  1982 45681811    Africa  56.006  3503.730
##  8   Egypt  1987 52799062    Africa  59.797  3885.461
##  9   Egypt  1992 59402198    Africa  63.674  3794.755
## 10   Egypt  1997 66134291    Africa  67.217  4173.182
## # ... with 14 more rows
…
